-------------------------------  Task Inventory ------------------------------
-->List of all tasks:  (0)
-->List of all tasks lists:  (0)
-->List of all connections lists:  (0)
-->List of node types:
-->List of node collections:
     -->Node Collection:HLTA01 : 25 Nodes
         -->Node:      hlta01            HLTControl
         -->Node:      hlta0105          HLTWorker
         -->Node:      hlta0106          HLTWorker
         -->Node:      hlta0107          HLTWorker
         -->Node:      hlta0108          HLTWorker
         -->Node:      hlta0109          HLTWorker
         -->Node:      hlta0110          HLTWorker
         -->Node:      hlta0111          HLTWorker
         -->Node:      hlta0112          HLTWorker
         -->Node:      hlta0113          HLTWorker
         -->Node:      hlta0114          HLTWorker
         -->Node:      hlta0115          HLTWorker
         -->Node:      hlta0116          HLTWorker
         -->Node:      hlta0117          HLTWorker
         -->Node:      hlta0118          HLTWorker
         -->Node:      hlta0119          HLTWorker
         -->Node:      hlta0120          HLTWorker
         -->Node:      hlta0121          HLTWorker
         -->Node:      hlta0122          HLTWorker
         -->Node:      hlta0123          HLTWorker
         -->Node:      hlta0124          HLTWorker
         -->Node:      hlta0125          HLTWorker
         -->Node:      hlta0126          HLTWorker
         -->Node:      hlta0127          HLTWorker
         -->Node:      hlta0128          HLTWorker

