JobOptionsSvc        INFO # =======> /workspace/build/Online/Online/GaudiRootCnvTests/options/Setup.opts
JobOptionsSvc        INFO # (1,1): ApplicationMgr.ExtSvc = ["Gaudi::MultiFileCatalog/FileCatalog", "Gaudi::IODataManager/IODataManager"]
JobOptionsSvc        INFO # =======> /workspace/build/Online/Online/GaudiRootCnvTests/options/SetupIO.opts
JobOptionsSvc        INFO # (1,1): ApplicationMgr.HistogramPersistency = "NONE"
JobOptionsSvc        INFO # (2,1): JobOptionSvc.OutputLevel = 4
JobOptionsSvc        INFO # (3,1): EventPersistencySvc.CnvServices += ["Gaudi::RootCnvSvc/RootCnvSvc"]
JobOptionsSvc        INFO # (4,1): MessageSvc.OutputLevel = 3
JobOptionsSvc        INFO # (5,1): ApplicationMgr.AuditAlgorithms = 1
JobOptionsSvc        INFO # (6,1): ApplicationMgr.ExtSvc += ["AuditorSvc"]
JobOptionsSvc        INFO # (7,1): ApplicationMgr.EvtMax = -1
JobOptionsSvc        INFO # (8,1): AuditorSvc.Auditors += ["ChronoAuditor"]
JobOptionsSvc        INFO # (9,1): FileCatalog.Catalogs = ["xmlcatalog_file:ROOTIO.xml"]
JobOptionsSvc        INFO # (10,1): EventSelector.PrintFreq = 500
JobOptionsSvc        INFO # (11,1): EventDataSvc.RootCLID = 1
JobOptionsSvc        INFO # (12,1): ReadAlg.OutputLevel = 4
JobOptionsSvc        INFO # (13,1): RootCnvSvc.CacheSize = 50000000
JobOptionsSvc        INFO # (14,1): RootCnvSvc.GlobalCompression = "LZMA:3"
JobOptionsSvc        INFO # (15,1): ApplicationMgr.SvcOptMapping += ["Gaudi::MultiFileCatalog/FileCatalog", "Gaudi::IODataManager/IODataManager"]
JobOptionsSvc        INFO # (16,1): ChronoStatSvc.OutputLevel = 4
JobOptionsSvc        INFO # =======> /workspace/build/Online/Online/GaudiRootCnvTests/options/CRD.opts
JobOptionsSvc        INFO # (2,1): ApplicationMgr.TopAlg = ["ReadAlg"]
JobOptionsSvc        INFO # (3,1): ApplicationMgr.ExtSvc += ["TagCollectionSvc/EvtTupleSvc"]
JobOptionsSvc        INFO # (4,1): RootCnvSvc.OutputLevel = 3
JobOptionsSvc        INFO # (5,1): MessageSvc.OutputLevel = 3
JobOptionsSvc        INFO # (6,1): ReadAlg.OutputLevel = 3
JobOptionsSvc        INFO # (8,1): RootCnvSvc.EnableIncident = 1
JobOptionsSvc        INFO # (9,1): ApplicationMgr.ExtSvc += ["FileRecordDataSvc"]
JobOptionsSvc        INFO # (10,1): FileRecordDataSvc.IncidentName = "NEW_FILE_RECORD"
JobOptionsSvc        INFO # (11,1): FileRecordDataSvc.ForceLeaves = 1
JobOptionsSvc        INFO # (12,1): FileRecordDataSvc.EnableFaultHandler = 1
JobOptionsSvc        INFO # (13,1): FileRecordDataSvc.RootCLID = 1
JobOptionsSvc        INFO # (15,1): ApplicationMgr.ExtSvc += ["Gaudi::RootCnvSvc/FileRecordCnvSvc"]
JobOptionsSvc        INFO # (16,1): FileRecordPersistencySvc.CnvServices += ["FileRecordCnvSvc"]
JobOptionsSvc        INFO # (17,1): FileRecordCnvSvc.ShareFiles = "YES"
JobOptionsSvc        INFO # (18,1): FileRecordCnvSvc.OutputLevel = 1
JobOptionsSvc        INFO # (20,1): ReadAlg.IncidentName = @FileRecordDataSvc.IncidentName
JobOptionsSvc        INFO # =======> /workspace/build/Online/Online/GaudiRootCnvTests/options/CRD.1.opts
JobOptionsSvc        INFO # (2,1): EventSelector.Input = ["COLLECTION='Dir1/Dir2/Dir3/Collection' DATAFILE='PFN:ROOTIO.1.tags' SVC='Gaudi::RootCnvSvc' SEL='(Ntrack>10)' FUN='Gaudi::Examples::EvtCollectionSelector'"]
JobOptionsSvc        INFO Job options successfully read in from /workspace/build/Online/Online/GaudiRootCnvTests/options/CRD.1.opts
ApplicationMgr    SUCCESS
====================================================================================================================================
                                                   Welcome to ApplicationMgr (GaudiCoreSvc v36r8)
                                          running on lbbuild201.cern.ch on Wed Nov 16 00:49:44 2022
====================================================================================================================================
ApplicationMgr       INFO Application Manager Configured successfully
FileRecordCnvSvc    DEBUG Property update for OutputLevel : new value = 1
FileRecordCnvSvc    DEBUG Service base class initialized successfully
FileRecordCnvSvc  VERBOSE ServiceLocatorHelper::service: found service IODataManager
FileRecordCnvSvc  VERBOSE ServiceLocatorHelper::service: found service IncidentSvc
FileRecordCnvSvc    DEBUG Installed IOHandler for class SmartRefBase
FileRecordCnvSvc    DEBUG Installed IOHandler for class ContainedObject
FileRecordCnvSvc    DEBUG Installed IOHandler for class pool::Token
EvtTupleSvc          INFO Added stream file:PFN:ROOTIO.1.tags as EventSelector.DataStreamTool_1
Gaudi::RootData...   INFO Connect to existing Database file:PFN:ROOTIO.1.tags as /EventSelector.DataStreamTool_1 for READ
EventSelector        INFO Stream:EventSelector.DataStreamTool_1 Def:COLLECTION='Dir1/Dir2/Dir3/Collection' DATAFILE='PFN:ROOTIO.1.tags' SVC='Gaudi::RootCnvSvc' SEL='(Ntrack>10)' FUN='Gaudi::Examples::EvtCollectionSelector'
ApplicationMgr       INFO Application Manager Initialized successfully
JobOptionsSvc        INFO Properties are dumped into "gaudirootcnvtests.11_collrd.joboptsdump"
ApplicationMgr       INFO Application Manager Started successfully
Gaudi::Examples::EvtCollectionSelector	 -> #tracks : 39
Gaudi::Examples::EvtCollectionSelector	 -> Momenta(Var): [0]=16.6774 [1]=18.1075 [2]=17.3899 [3]=17.9673 [4]=17.6287
Gaudi::Examples::EvtCollectionSelector	 -> Momenta(Fix): [0]=16.6774 [1]=18.1075 [2]=17.3899 [3]=17.9673 [4]=17.6287
Gaudi::Examples::EvtCollectionSelector	 -> Track :  px=10.802 py=9.50498 pz=8.43243
Gaudi::Examples::EvtCollectionSelector   SELECTED : True
EventSelector     SUCCESS Reading Event record 1. Record number within stream 1: 1
RootCnvSvc           INFO Setting global ROOT compression to:LZMA:3
EventPersistenc...   INFO Added successfully Conversion service:RootCnvSvc
FileRecordPersi...   INFO Added successfully Conversion service:FileRecordCnvSvc
FileRecordCnvSvc  VERBOSE FileRecordDataSvc -> Register:/FileRecords/10B462D0-6540-11ED-8295-FA163E4D95F4#/EvtCount[0]
FileRecordCnvSvc  VERBOSE FileRecordDataSvc -> Register:/FileRecords/10B462D0-6540-11ED-8295-FA163E4D95F4#/SumCount[0]
ReadAlg           SUCCESS Got incident: NEW_FILE_RECORD Source:/FileRecords/10B462D0-6540-11ED-8295-FA163E4D95F4
ReadAlg           SUCCESS Received incident:NEW_FILE_RECORD: /FileRecords/10B462D0-6540-11ED-8295-FA163E4D95F4
ReadAlg           SUCCESS Incident: FileInfo record: /FileRecords/10B462D0-6540-11ED-8295-FA163E4D95F4/EvtCount=500
ReadAlg           SUCCESS Incident: FileInfo record: /FileRecords/10B462D0-6540-11ED-8295-FA163E4D95F4/SumCount=123456
ReadAlg              INFO ========= EVENT:1 RUN:999 TIME:1577836801.001 0 (0) 1 (1) 2 (2)
ReadAlg           SUCCESS FileInfo record: 10B462D0-6540-11ED-8295-FA163E4D95F4/EvtCount=500
ReadAlg           SUCCESS FileInfo record: 10B462D0-6540-11ED-8295-FA163E4D95F4/SumCount=123456
Gaudi::Examples::EvtCollectionSelector	 -> #tracks : 93
Gaudi::Examples::EvtCollectionSelector	 -> Momenta(Var): [0]=16.6809 [1]=14.9037 [2]=16.7944 [3]=17.0709 [4]=17.3469
Gaudi::Examples::EvtCollectionSelector	 -> Momenta(Fix): [0]=16.6809 [1]=14.9037 [2]=16.7944 [3]=17.0709 [4]=17.3469
Gaudi::Examples::EvtCollectionSelector	 -> Track :  px=10.1578 py=9.51566 pz=9.19358
Gaudi::Examples::EvtCollectionSelector   SELECTED : True
ReadAlg              INFO ========= EVENT:2 RUN:999 TIME:1577836802.002 0 (0) 1 (1) 2 (2)
Gaudi::Examples::EvtCollectionSelector	 -> #tracks : 76
Gaudi::Examples::EvtCollectionSelector	 -> Momenta(Var): [0]=17.7422 [1]=16.7922 [2]=17.6961 [3]=16.0612 [4]=15.7365
Gaudi::Examples::EvtCollectionSelector	 -> Momenta(Fix): [0]=17.7422 [1]=16.7922 [2]=17.6961 [3]=16.0612 [4]=15.7365
Gaudi::Examples::EvtCollectionSelector	 -> Track :  px=10.4989 py=10.4342 pz=9.78193
Gaudi::Examples::EvtCollectionSelector   SELECTED : True
ReadAlg              INFO ========= EVENT:3 RUN:999 TIME:1577836803.003 0 (0) 1 (1) 2 (2)
Gaudi::Examples::EvtCollectionSelector	 -> #tracks : 93
Gaudi::Examples::EvtCollectionSelector	 -> Momenta(Var): [0]=16.7554 [1]=16.91 [2]=17.424 [3]=17.0529 [4]=16.2021
Gaudi::Examples::EvtCollectionSelector	 -> Momenta(Fix): [0]=16.7554 [1]=16.91 [2]=17.424 [3]=17.0529 [4]=16.2021
Gaudi::Examples::EvtCollectionSelector	 -> Track :  px=8.95659 py=9.22111 pz=10.7468
Gaudi::Examples::EvtCollectionSelector   SELECTED : True
ReadAlg              INFO ========= EVENT:4 RUN:999 TIME:1577836804.004 0 (0) 1 (1) 2 (2)
Gaudi::Examples::EvtCollectionSelector	 -> #tracks : 54
Gaudi::Examples::EvtCollectionSelector	 -> Momenta(Var): [0]=18.3973 [1]=15.7355 [2]=17.3919 [3]=17.6139 [4]=15.3032
Gaudi::Examples::EvtCollectionSelector	 -> Momenta(Fix): [0]=18.3973 [1]=15.7355 [2]=17.3919 [3]=17.6139 [4]=15.3032
Gaudi::Examples::EvtCollectionSelector	 -> Track :  px=10.7592 py=9.68162 pz=11.3563
Gaudi::Examples::EvtCollectionSelector   SELECTED : True
ReadAlg              INFO ========= EVENT:6 RUN:999 TIME:1577836806.006 0 (0) 1 (1) 2 (2)
Gaudi::Examples::EvtCollectionSelector	 -> #tracks : 20
Gaudi::Examples::EvtCollectionSelector	 -> Momenta(Var): [0]=16.7931 [1]=17.6738 [2]=18.2356 [3]=17.2335 [4]=18.7499
Gaudi::Examples::EvtCollectionSelector	 -> Momenta(Fix): [0]=16.7931 [1]=17.6738 [2]=18.2356 [3]=17.2335 [4]=18.7499
Gaudi::Examples::EvtCollectionSelector	 -> Track :  px=9.57394 py=9.64294 pz=9.8672
Gaudi::Examples::EvtCollectionSelector   SELECTED : True
ReadAlg              INFO ========= EVENT:7 RUN:999 TIME:1577836807.007 0 (0) 1 (1) 2 (2)
Gaudi::Examples::EvtCollectionSelector	 -> #tracks : 30
Gaudi::Examples::EvtCollectionSelector	 -> Momenta(Var): [0]=18.1953 [1]=18.3717 [2]=17.7559 [3]=17.5532 [4]=16.9245
Gaudi::Examples::EvtCollectionSelector	 -> Momenta(Fix): [0]=18.1953 [1]=18.3717 [2]=17.7559 [3]=17.5532 [4]=16.9245
Gaudi::Examples::EvtCollectionSelector	 -> Track :  px=10.978 py=9.54438 pz=10.9297
Gaudi::Examples::EvtCollectionSelector   SELECTED : True
ReadAlg              INFO ========= EVENT:8 RUN:999 TIME:1577836808.008 0 (0) 1 (1) 2 (2)
Gaudi::Examples::EvtCollectionSelector	 -> #tracks : 43
Gaudi::Examples::EvtCollectionSelector	 -> Momenta(Var): [0]=17.2377 [1]=16.0736 [2]=17.7182 [3]=18.0329 [4]=17.3308
Gaudi::Examples::EvtCollectionSelector	 -> Momenta(Fix): [0]=17.2377 [1]=16.0736 [2]=17.7182 [3]=18.0329 [4]=17.3308
Gaudi::Examples::EvtCollectionSelector	 -> Track :  px=10.6032 py=10.0631 pz=9.13475
Gaudi::Examples::EvtCollectionSelector   SELECTED : True
ReadAlg              INFO ========= EVENT:9 RUN:999 TIME:1577836809.009 0 (0) 1 (1) 2 (2)
Gaudi::Examples::EvtCollectionSelector	 -> #tracks : 52
Gaudi::Examples::EvtCollectionSelector	 -> Momenta(Var): [0]=16.7278 [1]=19.0105 [2]=17.2653 [3]=17.9376 [4]=18.0045
Gaudi::Examples::EvtCollectionSelector	 -> Momenta(Fix): [0]=16.7278 [1]=19.0105 [2]=17.2653 [3]=17.9376 [4]=18.0045
Gaudi::Examples::EvtCollectionSelector	 -> Track :  px=9.79151 py=8.83918 pz=10.2866
Gaudi::Examples::EvtCollectionSelector   SELECTED : True
ReadAlg              INFO ========= EVENT:500 RUN:999 TIME:1577837300.5 0 (0) 1 (1) 2 (2)
Gaudi::Examples::EvtCollectionSelector	 -> #tracks : 39
Gaudi::Examples::EvtCollectionSelector	 -> Momenta(Var): [0]=16.6774 [1]=18.1075 [2]=17.3899 [3]=17.9673 [4]=17.6287
Gaudi::Examples::EvtCollectionSelector	 -> Momenta(Fix): [0]=16.6774 [1]=18.1075 [2]=17.3899 [3]=17.9673 [4]=17.6287
Gaudi::Examples::EvtCollectionSelector	 -> Track :  px=10.802 py=9.50498 pz=8.43243
Gaudi::Examples::EvtCollectionSelector   SELECTED : True
FileRecordCnvSvc  VERBOSE FileRecordDataSvc -> Register:/FileRecords/10CDF3F8-6540-11ED-8295-FA163E4D95F4#/EvtCount[0]
FileRecordCnvSvc  VERBOSE FileRecordDataSvc -> Register:/FileRecords/10CDF3F8-6540-11ED-8295-FA163E4D95F4#/SumCount[0]
ReadAlg           SUCCESS Got incident: NEW_FILE_RECORD Source:/FileRecords/10CDF3F8-6540-11ED-8295-FA163E4D95F4
ReadAlg           SUCCESS Received incident:NEW_FILE_RECORD: /FileRecords/10CDF3F8-6540-11ED-8295-FA163E4D95F4
ReadAlg           SUCCESS Incident: FileInfo record: /FileRecords/10CDF3F8-6540-11ED-8295-FA163E4D95F4/EvtCount=500
ReadAlg           SUCCESS Incident: FileInfo record: /FileRecords/10CDF3F8-6540-11ED-8295-FA163E4D95F4/SumCount=123456
ReadAlg              INFO ========= EVENT:1 RUN:999 TIME:1577836801.001 0 (0) 1 (1) 2 (2)
ReadAlg           SUCCESS FileInfo record: 10CDF3F8-6540-11ED-8295-FA163E4D95F4/EvtCount=500
ReadAlg           SUCCESS FileInfo record: 10CDF3F8-6540-11ED-8295-FA163E4D95F4/SumCount=123456
Gaudi::Examples::EvtCollectionSelector	 -> #tracks : 93
Gaudi::Examples::EvtCollectionSelector	 -> Momenta(Var): [0]=16.6809 [1]=14.9037 [2]=16.7944 [3]=17.0709 [4]=17.3469
Gaudi::Examples::EvtCollectionSelector	 -> Momenta(Fix): [0]=16.6809 [1]=14.9037 [2]=16.7944 [3]=17.0709 [4]=17.3469
Gaudi::Examples::EvtCollectionSelector	 -> Track :  px=10.1578 py=9.51566 pz=9.19358
Gaudi::Examples::EvtCollectionSelector   SELECTED : True
ReadAlg              INFO ========= EVENT:2 RUN:999 TIME:1577836802.002 0 (0) 1 (1) 2 (2)
Gaudi::Examples::EvtCollectionSelector	 -> #tracks : 76
Gaudi::Examples::EvtCollectionSelector	 -> Momenta(Var): [0]=17.7422 [1]=16.7922 [2]=17.6961 [3]=16.0612 [4]=15.7365
Gaudi::Examples::EvtCollectionSelector	 -> Momenta(Fix): [0]=17.7422 [1]=16.7922 [2]=17.6961 [3]=16.0612 [4]=15.7365
Gaudi::Examples::EvtCollectionSelector	 -> Track :  px=10.4989 py=10.4342 pz=9.78193
Gaudi::Examples::EvtCollectionSelector   SELECTED : True
ReadAlg              INFO ========= EVENT:3 RUN:999 TIME:1577836803.003 0 (0) 1 (1) 2 (2)
Gaudi::Examples::EvtCollectionSelector	 -> #tracks : 93
Gaudi::Examples::EvtCollectionSelector	 -> Momenta(Var): [0]=16.7554 [1]=16.91 [2]=17.424 [3]=17.0529 [4]=16.2021
Gaudi::Examples::EvtCollectionSelector	 -> Momenta(Fix): [0]=16.7554 [1]=16.91 [2]=17.424 [3]=17.0529 [4]=16.2021
Gaudi::Examples::EvtCollectionSelector	 -> Track :  px=8.95659 py=9.22111 pz=10.7468
Gaudi::Examples::EvtCollectionSelector   SELECTED : True
ReadAlg              INFO ========= EVENT:4 RUN:999 TIME:1577836804.004 0 (0) 1 (1) 2 (2)
Gaudi::Examples::EvtCollectionSelector	 -> #tracks : 54
Gaudi::Examples::EvtCollectionSelector	 -> Momenta(Var): [0]=18.3973 [1]=15.7355 [2]=17.3919 [3]=17.6139 [4]=15.3032
Gaudi::Examples::EvtCollectionSelector	 -> Momenta(Fix): [0]=18.3973 [1]=15.7355 [2]=17.3919 [3]=17.6139 [4]=15.3032
Gaudi::Examples::EvtCollectionSelector	 -> Track :  px=10.7592 py=9.68162 pz=11.3563
Gaudi::Examples::EvtCollectionSelector   SELECTED : True
ReadAlg              INFO ========= EVENT:6 RUN:999 TIME:1577836806.006 0 (0) 1 (1) 2 (2)
Gaudi::Examples::EvtCollectionSelector	 -> #tracks : 20
Gaudi::Examples::EvtCollectionSelector	 -> Momenta(Var): [0]=16.7931 [1]=17.6738 [2]=18.2356 [3]=17.2335 [4]=18.7499
Gaudi::Examples::EvtCollectionSelector	 -> Momenta(Fix): [0]=16.7931 [1]=17.6738 [2]=18.2356 [3]=17.2335 [4]=18.7499
Gaudi::Examples::EvtCollectionSelector	 -> Track :  px=9.57394 py=9.64294 pz=9.8672
Gaudi::Examples::EvtCollectionSelector   SELECTED : True
ReadAlg              INFO ========= EVENT:7 RUN:999 TIME:1577836807.007 0 (0) 1 (1) 2 (2)
Gaudi::Examples::EvtCollectionSelector	 -> #tracks : 30
Gaudi::Examples::EvtCollectionSelector	 -> Momenta(Var): [0]=18.1953 [1]=18.3717 [2]=17.7559 [3]=17.5532 [4]=16.9245
Gaudi::Examples::EvtCollectionSelector	 -> Momenta(Fix): [0]=18.1953 [1]=18.3717 [2]=17.7559 [3]=17.5532 [4]=16.9245
Gaudi::Examples::EvtCollectionSelector	 -> Track :  px=10.978 py=9.54438 pz=10.9297
Gaudi::Examples::EvtCollectionSelector   SELECTED : True
ReadAlg              INFO ========= EVENT:8 RUN:999 TIME:1577836808.008 0 (0) 1 (1) 2 (2)
Gaudi::Examples::EvtCollectionSelector	 -> #tracks : 43
Gaudi::Examples::EvtCollectionSelector	 -> Momenta(Var): [0]=17.2377 [1]=16.0736 [2]=17.7182 [3]=18.0329 [4]=17.3308
Gaudi::Examples::EvtCollectionSelector	 -> Momenta(Fix): [0]=17.2377 [1]=16.0736 [2]=17.7182 [3]=18.0329 [4]=17.3308
Gaudi::Examples::EvtCollectionSelector	 -> Track :  px=10.6032 py=10.0631 pz=9.13475
Gaudi::Examples::EvtCollectionSelector   SELECTED : True
ReadAlg              INFO ========= EVENT:9 RUN:999 TIME:1577836809.009 0 (0) 1 (1) 2 (2)
Gaudi::Examples::EvtCollectionSelector	 -> #tracks : 52
Gaudi::Examples::EvtCollectionSelector	 -> Momenta(Var): [0]=16.7278 [1]=19.0105 [2]=17.2653 [3]=17.9376 [4]=18.0045
Gaudi::Examples::EvtCollectionSelector	 -> Momenta(Fix): [0]=16.7278 [1]=19.0105 [2]=17.2653 [3]=17.9376 [4]=18.0045
Gaudi::Examples::EvtCollectionSelector	 -> Track :  px=9.79151 py=8.83918 pz=10.2866
Gaudi::Examples::EvtCollectionSelector   SELECTED : True
ReadAlg              INFO ========= EVENT:500 RUN:999 TIME:1577837300.5 0 (0) 1 (1) 2 (2)
Gaudi::RootNTup...   INFO End of input Ntuple.
EventLoopMgr         INFO No more events in event selection
ApplicationMgr       INFO Application Manager Stopped successfully
EventLoopMgr         INFO Histograms converted successfully according to request.
ToolSvc              INFO Removing all tools created by ToolSvc
FileRecordCnvSvc     INFO Disconnected data IO:10B462D0-6540-11ED-8295-FA163E4D95F4 [ROOTIO.1.dst]
FileRecordCnvSvc     INFO Disconnected data IO:10CDF3F8-6540-11ED-8295-FA163E4D95F4 [ROOTIO.1.mdst]
EvtTupleSvc.Eve...   INFO Disconnected data IO:24A8E0D6-6540-11ED-ABE1-FA163E4D95F4 [ROOTIO.1.tags]
*****Chrono*****     INFO ****************************************************************************************************
*****Chrono*****     INFO  The Final CPU consumption ( Chrono ) Table (ordered)
*****Chrono*****     INFO ****************************************************************************************************
ReadAlg:Stop         INFO Time User   : Tot=    0 [us]  #=  1
ReadAlg:Start        INFO Time User   : Tot=    0 [us]  #=  1
ReadAlg:Finalize     INFO Time User   : Tot=    0 [us]  #=  1
ReadAlg:Initialize   INFO Time User   : Tot=    0 [us]  #=  1
ReadAlg:Execute      INFO Time User   : Tot=  160 [ms] Ave/Min/Max=    8.89(+-      26)/       0/     100 [ms] #= 18
*****Chrono*****     INFO ****************************************************************************************************
ChronoStatSvc.f...   INFO  Service finalized successfully
ApplicationMgr       INFO Application Manager Finalized successfully
ApplicationMgr       INFO Application Manager Terminated successfully
Number of MyTrack instances:1
