# setting LC_ALL to "C"
ApplicationMgr       INFO Application Manager Configured successfully
{
  "ApplicationMgr": {
    "AppName": "",
    "HistogramPersistency": "NONE",
    "OutStream": [
      "Online::MEPWriter/Writer_0"
    ],
    "TopAlg": [
      "Online::RawEventTestCreator/RawEventGen",
      "Online::TAETestCreator/TAECreator",
      "Online::Tell1BankDump/Dump",
      "StoreExplorerAlg/Explorer"
    ]
  },
  "Dump": {
    "CheckData": false,
    "DumpData": false,
    "FullDump": false,
    "OutputLevel": 3
  },
  "EventDataSvc": {
    "EnableFaultHandler": true,
    "ForceLeaves": true,
    "RootCLID": 1
  },
  "EventPersistencySvc": {
    "CnvServices": [
      "LHCb::RawDataCnvSvc/RawDataCnvSvc"
    ]
  },
  "EventSelector": {
    "Input": [
      "DATA='LFN:/user/frank/markus/mdf_1.dat' SVC='LHCb::MDFSelector'",
      "DATA='PFN:root:file://mdfData_0.dat'        SVC='LHCb::MDFSelector'",
      "DATA='root:file:mdfData_2.dat'              SVC='LHCb::MDFSelector'",
      "DATA='PFN:root:mdfData_3.dat'               SVC='LHCb::MDFSelector'",
      "DATA='root:mdfData_4.dat'                   SVC='LHCb::MDFSelector'",
      "DATA='PFN:root:file://./mdfData_5.dat'        SVC='LHCb::MDFSelector'",
      "DATA='PFN:root:file:./mdfData_6.dat'          SVC='LHCb::MDFSelector'",
      "DATA='PFN:root:./mdfData_7.dat'               SVC='LHCb::MDFSelector'",
      "DATA='root:file://./mdfData_8.dat'            SVC='LHCb::MDFSelector'",
      "DATA='root:file:./mdfData_9.dat'              SVC='LHCb::MDFSelector'",
      "DATA='./mdfData_10.dat'                       SVC='LHCb::MDFSelector'"
    ],
    "PrintFreq": 200
  },
  "Explorer": {
    "AccessForeign": true,
    "Load": true,
    "OutputLevel": 3,
    "PrintFreq": 0.00021
  },
  "FileCatalog": {
    "Catalogs": [
      "xmlcatalog_file:qmTest.xml"
    ]
  },
  "IODataManager": {
    "AgeLimit": 1,
    "OutputLevel": 3
  },
  "MessageSvc": {
    "OutputLevel": 3
  },
  "TAECreator": {
    "TAEEvents": 5
  },
  "Writer_0": {
    "ChecksumType": 1,
    "Compress": 0,
    "Connection": "PFN:file://taeData.dat",
    "GenerateMD5": true,
    "MakeTAE": true,
    "PackingFactor": 11
  }
}
+-------------------> Start processing events
Writer_0             INFO Initialize MDFWriter
Writer_0             INFO Received event request connection.
EventSelector        INFO Stream:EventSelector.DataStreamTool_1 Def:DATA='LFN:/user/frank/markus/mdf_1.dat' SVC='LHCb::MDFSelector'
ApplicationMgr       INFO Application Manager Initialized successfully
JobOptionsSvc        INFO Properties are dumped into "mdf.mdf_08_create_tae.joboptsdump"
ApplicationMgr       INFO Application Manager Started successfully
EventSelector.D...   INFO Compression:0 Checksum:0
EventSelector     SUCCESS Reading Event record 1. Record number within stream 1: 1
EventPersistenc...   INFO Added successfully Conversion service:RawDataCnvSvc
Explorer             INFO ========= /Event[0x172b9c60@EventDataSvc]:
Explorer             INFO +--> /Event [Address: CLID=0x1 Type=0xa000000]  DataObject
Explorer             INFO | +--> /DAQ [Address: CLID=0x1 Type=0xa000000]  DataObject
Explorer             INFO | | +--> /RawEvent [No Address]  LHCb::RawEvent
Explorer             INFO | +--> /Prev5 [No Address]  DataObject
Explorer             INFO | | +--> /DAQ [No Address]  DataObject
Explorer             INFO | |   +--> /RawEvent [No Address]  LHCb::RawEvent
Explorer             INFO | +--> /Prev4 [No Address]  DataObject
Explorer             INFO | | +--> /DAQ [No Address]  DataObject
Explorer             INFO | |   +--> /RawEvent [No Address]  LHCb::RawEvent
Explorer             INFO | +--> /Prev3 [No Address]  DataObject
Explorer             INFO | | +--> /DAQ [No Address]  DataObject
Explorer             INFO | |   +--> /RawEvent [No Address]  LHCb::RawEvent
Explorer             INFO | +--> /Prev2 [No Address]  DataObject
Explorer             INFO | | +--> /DAQ [No Address]  DataObject
Explorer             INFO | |   +--> /RawEvent [No Address]  LHCb::RawEvent
Explorer             INFO | +--> /Prev1 [No Address]  DataObject
Explorer             INFO | | +--> /DAQ [No Address]  DataObject
Explorer             INFO | |   +--> /RawEvent [No Address]  LHCb::RawEvent
Explorer             INFO | +--> /Next1 [No Address]  DataObject
Explorer             INFO | | +--> /DAQ [No Address]  DataObject
Explorer             INFO | |   +--> /RawEvent [No Address]  LHCb::RawEvent
Explorer             INFO | +--> /Next2 [No Address]  DataObject
Explorer             INFO | | +--> /DAQ [No Address]  DataObject
Explorer             INFO | |   +--> /RawEvent [No Address]  LHCb::RawEvent
Explorer             INFO | +--> /Next3 [No Address]  DataObject
Explorer             INFO | | +--> /DAQ [No Address]  DataObject
Explorer             INFO | |   +--> /RawEvent [No Address]  LHCb::RawEvent
Explorer             INFO | +--> /Next4 [No Address]  DataObject
Explorer             INFO | | +--> /DAQ [No Address]  DataObject
Explorer             INFO | |   +--> /RawEvent [No Address]  LHCb::RawEvent
Explorer             INFO   +--> /Next5 [No Address]  DataObject
Explorer             INFO     +--> /DAQ [No Address]  DataObject
Explorer             INFO       +--> /RawEvent [No Address]  LHCb::RawEvent
EventSelector     SUCCESS Reading Event record 201. Record number within stream 1: 201
EventSelector     SUCCESS Reading Event record 401. Record number within stream 1: 401
EventSelector     SUCCESS Reading Event record 601. Record number within stream 1: 601
EventSelector     SUCCESS Reading Event record 801. Record number within stream 1: 801
EventSelector     SUCCESS Reading Event record 1001. Record number within stream 1: 1001
EventSelector     SUCCESS Reading Event record 1201. Record number within stream 1: 1201
EventSelector     SUCCESS Reading Event record 1401. Record number within stream 1: 1401
EventSelector     SUCCESS Reading Event record 1601. Record number within stream 1: 1601
EventSelector     SUCCESS Reading Event record 1801. Record number within stream 1: 1801
EventSelector.D...   INFO Cannot read more data  (Header). End-of-File reached.
EventSelector        INFO Stream:EventSelector.DataStreamTool_2 Def:DATA='PFN:root:file://mdfData_0.dat'        SVC='LHCb::MDFSelector'
EventSelector.D...   INFO Compression:2 Checksum:1
EventSelector     SUCCESS Reading Event record 2001. Record number within stream 2: 1
EventSelector     SUCCESS Reading Event record 2201. Record number within stream 2: 201
EventSelector     SUCCESS Reading Event record 2401. Record number within stream 2: 401
EventSelector     SUCCESS Reading Event record 2601. Record number within stream 2: 601
EventSelector     SUCCESS Reading Event record 2801. Record number within stream 2: 801
+-------------------> Finished processing events
ApplicationMgr       INFO Application Manager Stopped successfully
Writer_0             INFO File Size:31540032 Output:PFN:file://taeData.dat
EventLoopMgr         INFO Histograms converted successfully according to request.
ToolSvc              INFO Removing all tools created by ToolSvc
ApplicationMgr       INFO Application Manager Finalized successfully
ApplicationMgr       INFO Application Manager Terminated successfully
