{
	"gdb_runfile": "Online/EventBuilding/scripts/run.gdb",
	"mbm": {
		"debug": [
			"host list python regex are supported"
		],
		"xterm": [
			"host list python regex are supported"
		]
	},
	"mfp": {
		"debug": [
			"host list python regex are supported"
		],
		"xterm": [
			"host list python regex are supported"
		]
	},
	"eb": {
		"ru_debug": [
			"host list python regex are supported"
		],
		"ru_xterm": [
			"host list python regex are supported"
		],
		"bu_debug": [
			"host list python regex are supported"
		],
		"bu_xterm": [
			"host list python regex are supported"
		]
	}
}